<?xml version="1.0" encoding="utf-8"?>
<!-- Generator: Adobe Illustrator 23.0.3, SVG Export Plug-In . SVG Version: 6.00 Build 0)  -->
<svg version="1.1" id="Layer_1" xmlns="http://www.w3.org/2000/svg" xmlns:xlink="http://www.w3.org/1999/xlink" x="0px" y="0px"
	 viewBox="0 0 841.9 204.3" style="enable-background:new 0 0 841.9 204.3;" xml:space="preserve">
<g>
	<rect x="18.8" y="161.7" width="181.4" height="20.7"/>
	<polygon points="141.4,21.4 118.7,21.4 118.7,139.7 200.2,139.7 200.2,118.7 141.4,118.7 	"/>
	<path d="M278.1,93.5c0,17.6-7.7,26.4-23,26.4s-23-8.9-23-26.4V21.4h-22.5v71.4c0,30.2,15.7,48.9,45.5,48.9
		c29.8,0,45.7-18.8,45.7-48.9V21.4h-22.7V93.5z"/>
	<polygon points="313.2,42.4 344.9,42.4 344.9,139.7 367.4,139.7 367.4,42.4 399.2,42.4 399.2,21.4 313.2,21.4 	"/>
	<polygon points="408,42.4 439.7,42.4 439.7,139.7 462.2,139.7 462.2,42.4 493.9,42.4 493.9,21.4 408,21.4 	"/>
	<path d="M660.7,39c13.6,0,24.2,8,29.5,18.8h24.4c-7.3-24.2-27.1-39.4-53.9-39.4c-32.2,0-57.3,27.1-57.3,61.7
		c0,34.6,25.1,61.7,57.3,61.7c26.3,0,46.2-15.5,53.7-39.5h-24.2c-5.3,10.7-16,19.1-29.5,19.1c-19.4,0-34.8-18.8-34.8-41.3
		C625.9,57.7,641.2,39,660.7,39z"/>
	<polygon points="802.5,21.4 802.5,68.8 752,68.8 752,21.4 729.4,21.4 729.4,139.7 752,139.7 752,89.8 802.5,89.8 802.5,139.7 
		825,139.7 825,21.4 	"/>
	<polygon points="18.8,139.7 41.3,139.7 41.3,91.5 94.7,91.5 94.7,70.5 18.8,70.5 	"/>
	<polygon points="103.4,21.4 18.8,21.4 18.8,42.4 41.3,42.4 90.7,42.4 103.4,42.4 	"/>
	<polygon points="571.9,42.4 594,42.4 594,21.4 507.6,21.4 507.6,42.4 530.1,42.4 	"/>
	<polygon points="530.1,118.7 507.6,118.7 507.6,139.7 595.2,139.7 595.2,118.7 590.7,118.7 	"/>
	<polygon points="584.6,88.6 584.6,67.6 571.9,67.6 530.1,67.6 507.6,67.6 507.6,88.6 530.1,88.6 	"/>
</g>
</svg>
